{
  "everDrives": {
    "megaX": "v3.15",
    "fxPak": "1.11.0",
    "ed64": "v3.07",
    "gbEd": "v1.06",
    "gbaEd": "v1.16",
    "n8Pro": "v2.15"
  },
  "flashCarts": {
    "teos": "v3.01"
  },
  "odes": {
    "gcloader": "2.0.1"
  },
  "software": {
    "swiss": "v0.6r1614",
    "freemcboot": "1.966",
    "retroUsbSb_win": "v1.50b1"
  },
  "devices": {
    "analoguePocket": "2.2",
    "retroTink5xPro": "3.71",
    "retroUsbAvs": "v1.52",
    "analogueDuoJailbreak": "v0.9"
  },
  "mods": {
    "r77FwNg_uImage": "stella-6.6.0"
  }
}
