{
  "everDrives": {
    "megaX": "v99",
    "megaPro": "v99",
    "megaV1": "v99",
    "superEd": "v99",
    "fxPak": "v99",
    "ed64": "v99",
    "ed64V1": "v99",
    "gbEd": "v99",
    "edGbV1": "v99",
    "gbaEd": "v99",
    "turboEd": "v99",
    "turboEdV1": "v99",
    "n8": "v99",
    "n8Pro": "v99",
    "masterEd": "v99",
    "masterEdV1": "v99",
    "edGg": "v99",
    "turboEdPro": "v99"
  },
  "flashCarts": {
    "hw1_64Drive": "v99",
    "hw2_64Drive": "v99",
    "neoPocketGD": "v99",
    "teos": "v99"
  },
  "odes": {
    "gcloader": "v99",
    "satiator": "v99",
    "fenrir": "v99",
    "xstation": "v99",
    "xport": "v99"
  },
  "software": {
    "swiss": "v99",
    "freemcboot": "v99",
    "flashmasta_mac": "v99",
    "flashmasta_linux": "v99",
    "flashmasta_windows": "v99",
    "ltoflash_mac": "v99",
    "ltoflash_source": "v99",
    "ltoflash_windows": "v99",
    "harmonycart_mac": "v99",
    "harmonycart_linux": "v99",
    "harmonycart_windows": "v99",
    "harmonycart_source": "v99",
    "tonyhax": "v99",
    "opl": "v99",
    "retroUsbSb_win": "v99",
    "retroUsbSb_mac": "v99",
    "raphnet_win": "v99",
    "raphnet_source": "v99",
    "gcmm": "v99",
    "freePsxBoot": "v99",
    "unirom": "v99",
    "hackchi2_installer": "v99",
    "hackchi2_portable": "v99"
  },
  "devices": {
    "analoguePocket": "v99",
    "analogueDuo": "v99",
    "psxpismbshare": "v99",
    "gbinterceptor": "v99",
    "retroUsbAvs": "v99",
    "retroTink5xPro": "v99",
    "retroTink4k": "v99",
    "psKai": "v99",
    "psKaiMenu": "v99",
    "ossc_audio_en": "v99",
    "ossc_audio_jp": "v99",
    "ossc_noAudio_en": "v99",
    "ossc_noAudio_jp": "v99",
    "rgbBlaster": "v99",
    "analogueDuoJailbreak": "v99"
  },
  "mods": {
    "picoboot": "v99",
    "kunaiGc": "v99",
    "r77FwNg_sdcard": "v99",
    "r77FwNg_uImage": "v99"
  }
}
